{
  "configurations" : [ ],
  "host_groups" : [
    {
      "name" : "Ambari_Agent",
      "components" : [
        {
          "name" : "NAMENODE"
        },
        {
          "name" : "SECONDARY_NAMENODE"
        },
        {
          "name" : "DATANODE"
        },
        {
          "name" : "HDFS_CLIENT"
        },
        {
          "name" : "RESOURCEMANAGER"
        },
        {
          "name" : "NODEMANAGER"
        },
        {
          "name" : "YARN_CLIENT"
        },
        {
          "name" : "HISTORYSERVER"
        },
        {
          "name" : "APP_TIMELINE_SERVER"
        },
        {
          "name" : "MAPREDUCE2_CLIENT"
        },
        {
          "name" : "ZOOKEEPER_SERVER"
        },
        {
          "name" : "ZOOKEEPER_CLIENT"
        }
      ],
      "cardinality" : "1"
    }
  ],
  "Blueprints" : {
    "blueprint_name" : "single-node-hdp-cluster",
    "stack_name" : "HDP",
    "stack_version" : "2.4"
  }
}
